%YAML 1.1
%TAG !u! tag:unity3d.com,2011:
--- !u!1045 &1
EditorBuildSettings:
  m_ObjectHideFlags: 0
  serializedVersion: 2
  m_Scenes:
  - enabled: 1
    path: Assets/Core/Scenes/StagingScene.unity
  - enabled: 1
    path: Assets/Core/Scenes/Lose.unity
  - enabled: 1
    path: Assets/Core/Scenes/Win.unity
